print (30 * '-')
print ("   S L U G  - T E S T - M E N U")
print (30 * '-')
print ('NOTE: TYPE 0 TO STOP EXECUTION!')
print ("How was the data collected?")
print ("1. Pneumatic")
print ("2. Manual")
print ("3. XXXXXX")
print (30 * '-')